Análisis preliminar RAS
…
    col_factor

library(patchwork)

Cargar {pins}

carpeta <- board_folder("C:/Users/Alex/OneDrive/Documentos/RAR/")

Base de datos de establecimientos clasificados y agrupados

pin_read(board = carpeta, 
             name = "bdd_establecimientos_clase") 

# A tibble: 5,667 × 15
   anio  parroquia_factor `Centro clínico qu…` `Centro de esp…` `Centro de Sal…`
   <chr> <chr>                           <int>            <int>            <int>
 1 2015  060150                              1                0               24
 2 2015  070950                              1                0                6
 3 2015  090112                              9                8              264
 4 2015  090156                              1                0                3
 5 2015  110102                              1                1               45
 6 2015  120550                              1                1               36
 7 2015  130250                              1                0               12
 8 2015  130650                              1                1                3
 9 2015  140250                              1                0                0
10 2015  170103                              1                1               15
# … with 5,657 more rows, and 10 more variables: `Centro de Salud B` <int>,
#   `Centro de Salud C` <int>, `Clínica general` <int>, Consultorios <int>,
#   Dispensarios <int>, `Gineco-Obstetricia` <int>, Hospitales <int>,
#   `Otros establecimientos sin internación` <int>, `Puesto de salud` <int>,
#   `Subcentro de salud` <int>
…
